{
	"info": {
		"_postman_id": "59f6f007-8f06-41ec-816b-c0c3d7e5c9f3",
		"name": "Capstone 2 - Backend",
		"schema": "https://schema.getpostman.com/json/collection/v2.1.0/collection.json",
		"_exporter_id": "24288553"
	},
	"item": [
		{
			"name": "User Registration - Sign Up",
			"request": {
				"method": "POST",
				"header": [],
				"body": {
					"mode": "raw",
					"raw": "{\r\n    \"firstName\" : \"Lebron\",\r\n    \"lastName\" : \"James\",\r\n    \"email\" : \"lebronjames@gmail.com\",\r\n    \"password\" : \"kingjames23\",\r\n    \"isAdmin\" : false\r\n}\r\n",
					"options": {
						"raw": {
							"language": "json"
						}
					}
				},
				"url": {
					"raw": "localhost:8000/users/signUp",
					"host": [
						"localhost"
					],
					"port": "8000",
					"path": [
						"users",
						"signUp"
					]
				}
			},
			"response": []
		},
		{
			"name": "User Authentication - Login (User)",
			"request": {
				"method": "POST",
				"header": [],
				"body": {
					"mode": "raw",
					"raw": "{\r\n    \"email\" : \"kobebryant@gmail.com\",\r\n    \"password\" : \"blackmamba24\"\r\n}",
					"options": {
						"raw": {
							"language": "json"
						}
					}
				},
				"url": {
					"raw": "localhost:8000/users/login",
					"host": [
						"localhost"
					],
					"port": "8000",
					"path": [
						"users",
						"login"
					]
				}
			},
			"response": []
		},
		{
			"name": "User Authentication - Login (Admin)",
			"request": {
				"method": "POST",
				"header": [],
				"body": {
					"mode": "raw",
					"raw": "{\r\n    \"email\" : \"carloadmin@gmail.com\",\r\n    \"password\" : \"pogepoge123\"\r\n}",
					"options": {
						"raw": {
							"language": "json"
						}
					}
				},
				"url": {
					"raw": "localhost:8000/users/login",
					"host": [
						"localhost"
					],
					"port": "8000",
					"path": [
						"users",
						"login"
					]
				}
			},
			"response": []
		},
		{
			"name": "Create Product (Admin Only)",
			"request": {
				"auth": {
					"type": "bearer",
					"bearer": [
						{
							"key": "token",
							"value": "eyJhbGciOiJIUzI1NiIsInR5cCI6IkpXVCJ9.eyJpZCI6IjYzZDI0ZTljMWZmN2E4Nzc2MTQ0OGZlZSIsImVtYWlsIjoia29iZWJyeWFudEBnbWFpbC5jb20iLCJpc0FkbWluIjpmYWxzZSwiaWF0IjoxNjc0ODQ1MDA3LCJleHAiOjE2NzQ4NDYyMDd9.YDrnhKERpoDoWW69SzyM0XoL1dReslCnVU2c1iu2cLo",
							"type": "string"
						}
					]
				},
				"method": "POST",
				"header": [],
				"body": {
					"mode": "raw",
					"raw": "{\r\n    \"name\" : \"Nike Lebron 17 Red Carpet\",\r\n    \"description\": \"Gym red\",\r\n    \"size\" : \"Mens 9US / 10UK\",\r\n    \"quantity\" : 10,\r\n    \"price\" : 8000,\r\n    \"inStock\" : true\r\n}",
					"options": {
						"raw": {
							"language": "json"
						}
					}
				},
				"url": {
					"raw": "localhost:8000/products/addProduct",
					"host": [
						"localhost"
					],
					"port": "8000",
					"path": [
						"products",
						"addProduct"
					]
				}
			},
			"response": []
		},
		{
			"name": "Retrieve All Products (Admin Only)",
			"request": {
				"auth": {
					"type": "bearer",
					"bearer": [
						{
							"key": "token",
							"value": "eyJhbGciOiJIUzI1NiIsInR5cCI6IkpXVCJ9.eyJpZCI6IjYzZDE1MjY0NjJjODFjOGE3NGViZDllYSIsImVtYWlsIjoiY2FybG9hZG1pbkBnbWFpbC5jb20iLCJpc0FkbWluIjp0cnVlLCJpYXQiOjE2NzUwNzQ5MDIsImV4cCI6MTY3NTA3NjEwMn0.rVz6SnQO9nHp-gEQ-ocyKJQaeDZ2aHAi3yJ3e4FUTcw",
							"type": "string"
						}
					]
				},
				"method": "GET",
				"header": [],
				"url": {
					"raw": "localhost:8000/products/getAllProducts",
					"host": [
						"localhost"
					],
					"port": "8000",
					"path": [
						"products",
						"getAllProducts"
					]
				}
			},
			"response": []
		},
		{
			"name": "Retrieve Single Product",
			"request": {
				"method": "GET",
				"header": [],
				"url": {
					"raw": "localhost:8000/products/getProduct/63d26c2c5aef54c12161e8f8",
					"host": [
						"localhost"
					],
					"port": "8000",
					"path": [
						"products",
						"getProduct",
						"63d26c2c5aef54c12161e8f8"
					]
				}
			},
			"response": []
		},
		{
			"name": "Retrieve Active Products (User)",
			"request": {
				"method": "GET",
				"header": [],
				"url": {
					"raw": "localhost:8000/products/inStock",
					"host": [
						"localhost"
					],
					"port": "8000",
					"path": [
						"products",
						"inStock"
					]
				}
			},
			"response": []
		},
		{
			"name": "Update Product (Admin Only)",
			"request": {
				"auth": {
					"type": "bearer",
					"bearer": [
						{
							"key": "token",
							"value": "eyJhbGciOiJIUzI1NiIsInR5cCI6IkpXVCJ9.eyJpZCI6IjYzZDE1MjY0NjJjODFjOGE3NGViZDllYSIsImVtYWlsIjoiY2FybG9hZG1pbkBnbWFpbC5jb20iLCJpc0FkbWluIjp0cnVlLCJpYXQiOjE2NzUwNzQ5MDIsImV4cCI6MTY3NTA3NjEwMn0.rVz6SnQO9nHp-gEQ-ocyKJQaeDZ2aHAi3yJ3e4FUTcw",
							"type": "string"
						}
					]
				},
				"method": "PUT",
				"header": [],
				"body": {
					"mode": "raw",
					"raw": "{\r\n        \"name\": \"Nike Air Jordan XIV HGG\",\r\n        \"description\": \"White black\",\r\n        \"size\": \"Mens 11US / 10UK\",\r\n        \"price\": 10000,\r\n        \"quantity\": 10\r\n}",
					"options": {
						"raw": {
							"language": "json"
						}
					}
				},
				"url": {
					"raw": "localhost:8000/products/updateProduct/63d2a7086e85b60c890e7c8b",
					"host": [
						"localhost"
					],
					"port": "8000",
					"path": [
						"products",
						"updateProduct",
						"63d2a7086e85b60c890e7c8b"
					]
				}
			},
			"response": []
		},
		{
			"name": "Archive Product (Admin Only)",
			"request": {
				"auth": {
					"type": "bearer",
					"bearer": [
						{
							"key": "token",
							"value": "eyJhbGciOiJIUzI1NiIsInR5cCI6IkpXVCJ9.eyJpZCI6IjYzZDE1NmI2ODc1OWE4NjhlNWU3YWUyMCIsImVtYWlsIjoibWljaGFlbGpvcmRhbkBnbWFpbC5jb20iLCJpc0FkbWluIjpmYWxzZSwiaWF0IjoxNjc0ODQxNDQwLCJleHAiOjE2NzQ4NDI2NDB9.NeYZDJ-KU6r-crMi73XCjvur8SeV-rHHNv5RS7Xjnjw",
							"type": "string"
						}
					]
				},
				"method": "PUT",
				"header": [],
				"url": {
					"raw": "localhost:8000/products/archiveProduct/63d26c2c5aef54c12161e8f8",
					"host": [
						"localhost"
					],
					"port": "8000",
					"path": [
						"products",
						"archiveProduct",
						"63d26c2c5aef54c12161e8f8"
					]
				}
			},
			"response": []
		},
		{
			"name": "Unarchive Product (Admin Only)",
			"request": {
				"auth": {
					"type": "bearer",
					"bearer": [
						{
							"key": "token",
							"value": "eyJhbGciOiJIUzI1NiIsInR5cCI6IkpXVCJ9.eyJpZCI6IjYzZDI0ZTljMWZmN2E4Nzc2MTQ0OGZlZSIsImVtYWlsIjoia29iZWJyeWFudEBnbWFpbC5jb20iLCJpc0FkbWluIjpmYWxzZSwiaWF0IjoxNjc0ODQ1MDA3LCJleHAiOjE2NzQ4NDYyMDd9.YDrnhKERpoDoWW69SzyM0XoL1dReslCnVU2c1iu2cLo",
							"type": "string"
						}
					]
				},
				"method": "PUT",
				"header": [],
				"url": {
					"raw": "localhost:8000/products/unarchiveProduct/63d26c2c5aef54c12161e8f8",
					"host": [
						"localhost"
					],
					"port": "8000",
					"path": [
						"products",
						"unarchiveProduct",
						"63d26c2c5aef54c12161e8f8"
					]
				}
			},
			"response": []
		},
		{
			"name": "Retrieve All Users (Admin Only)",
			"request": {
				"auth": {
					"type": "bearer",
					"bearer": [
						{
							"key": "token",
							"value": "eyJhbGciOiJIUzI1NiIsInR5cCI6IkpXVCJ9.eyJpZCI6IjYzZDE1MjY0NjJjODFjOGE3NGViZDllYSIsImVtYWlsIjoiY2FybG9hZG1pbkBnbWFpbC5jb20iLCJpc0FkbWluIjp0cnVlLCJpYXQiOjE2NzUwNzQxMjAsImV4cCI6MTY3NTA3NTMyMH0.SKF-TB91AVFgLa_nb5R2_pBWRwms_Ax2yg-tP18mv9Y",
							"type": "string"
						}
					]
				},
				"method": "GET",
				"header": [],
				"url": {
					"raw": "localhost:8000/users/getAllUsers/",
					"host": [
						"localhost"
					],
					"port": "8000",
					"path": [
						"users",
						"getAllUsers",
						""
					]
				}
			},
			"response": []
		},
		{
			"name": "Retrieve User Details",
			"request": {
				"auth": {
					"type": "bearer",
					"bearer": [
						{
							"key": "token",
							"value": "User Checkout - Create Order",
							"type": "string"
						}
					]
				},
				"method": "GET",
				"header": [],
				"url": {
					"raw": "localhost:8000/users/getUser/63d156b68759a868e5e7ae20",
					"host": [
						"localhost"
					],
					"port": "8000",
					"path": [
						"users",
						"getUser",
						"63d156b68759a868e5e7ae20"
					]
				}
			},
			"response": []
		},
		{
			"name": "Create Order - Add To Cart",
			"request": {
				"auth": {
					"type": "bearer",
					"bearer": [
						{
							"key": "token",
							"value": "eyJhbGciOiJIUzI1NiIsInR5cCI6IkpXVCJ9.eyJpZCI6IjYzZDE1MjY0NjJjODFjOGE3NGViZDllYSIsImVtYWlsIjoiY2FybG9hZG1pbkBnbWFpbC5jb20iLCJpc0FkbWluIjp0cnVlLCJpYXQiOjE2NzUwNzQxMjAsImV4cCI6MTY3NTA3NTMyMH0.SKF-TB91AVFgLa_nb5R2_pBWRwms_Ax2yg-tP18mv9Y",
							"type": "string"
						}
					]
				},
				"method": "POST",
				"header": [],
				"body": {
					"mode": "raw",
					"raw": "{\r\n\t\"productId\": \"63d2a7086e85b60c890e7c8b\",\r\n    \"quantity\": 2\r\n}   \r\n",
					"options": {
						"raw": {
							"language": "json"
						}
					}
				},
				"url": {
					"raw": "localhost:8000/orders/addToCart",
					"host": [
						"localhost"
					],
					"port": "8000",
					"path": [
						"orders",
						"addToCart"
					]
				}
			},
			"response": []
		},
		{
			"name": "Checkout",
			"request": {
				"auth": {
					"type": "bearer",
					"bearer": [
						{
							"key": "token",
							"value": "eyJhbGciOiJIUzI1NiIsInR5cCI6IkpXVCJ9.eyJpZCI6IjYzZDE1MjY0NjJjODFjOGE3NGViZDllYSIsImVtYWlsIjoiY2FybG9hZG1pbkBnbWFpbC5jb20iLCJpc0FkbWluIjp0cnVlLCJpYXQiOjE2NzUwNzQxMjAsImV4cCI6MTY3NTA3NTMyMH0.SKF-TB91AVFgLa_nb5R2_pBWRwms_Ax2yg-tP18mv9Y",
							"type": "string"
						}
					]
				},
				"method": "POST",
				"header": [],
				"url": {
					"raw": "localhost:8000/orders/checkOut",
					"host": [
						"localhost"
					],
					"port": "8000",
					"path": [
						"orders",
						"checkOut"
					]
				}
			},
			"response": []
		},
		{
			"name": "Grant Admin Access (Admin Only)",
			"request": {
				"auth": {
					"type": "bearer",
					"bearer": [
						{
							"key": "token",
							"value": "eyJhbGciOiJIUzI1NiIsInR5cCI6IkpXVCJ9.eyJpZCI6IjYzZDE1MjY0NjJjODFjOGE3NGViZDllYSIsImVtYWlsIjoiY2FybG9hZG1pbkBnbWFpbC5jb20iLCJpc0FkbWluIjp0cnVlLCJpYXQiOjE2NzQ4NDQyMjEsImV4cCI6MTY3NDg0NTQyMX0.mJu1i5daXGGJA-lXoPXATL35_HlTZV1uaWehrfO_IHE",
							"type": "string"
						}
					]
				},
				"method": "PUT",
				"header": [],
				"url": {
					"raw": "localhost:8000/users/setAdmin/63d156b68759a868e5e7ae20",
					"host": [
						"localhost"
					],
					"port": "8000",
					"path": [
						"users",
						"setAdmin",
						"63d156b68759a868e5e7ae20"
					]
				}
			},
			"response": []
		},
		{
			"name": "Remove Admin (Admin Only)",
			"request": {
				"auth": {
					"type": "bearer",
					"bearer": [
						{
							"key": "token",
							"value": "eyJhbGciOiJIUzI1NiIsInR5cCI6IkpXVCJ9.eyJpZCI6IjYzZDI0ZTljMWZmN2E4Nzc2MTQ0OGZlZSIsImVtYWlsIjoia29iZWJyeWFudEBnbWFpbC5jb20iLCJpc0FkbWluIjpmYWxzZSwiaWF0IjoxNjc0ODQ1MDA3LCJleHAiOjE2NzQ4NDYyMDd9.YDrnhKERpoDoWW69SzyM0XoL1dReslCnVU2c1iu2cLo",
							"type": "string"
						}
					]
				},
				"method": "PUT",
				"header": [],
				"url": {
					"raw": "localhost:8000/users/removeAdmin/63d156b68759a868e5e7ae20",
					"host": [
						"localhost"
					],
					"port": "8000",
					"path": [
						"users",
						"removeAdmin",
						"63d156b68759a868e5e7ae20"
					]
				}
			},
			"response": []
		},
		{
			"name": "Retrieve Orders",
			"request": {
				"auth": {
					"type": "bearer",
					"bearer": [
						{
							"key": "token",
							"value": "eyJhbGciOiJIUzI1NiIsInR5cCI6IkpXVCJ9.eyJpZCI6IjYzZDE1MjY0NjJjODFjOGE3NGViZDllYSIsImVtYWlsIjoiY2FybG9hZG1pbkBnbWFpbC5jb20iLCJpc0FkbWluIjp0cnVlLCJpYXQiOjE2NzUwNzQxMjAsImV4cCI6MTY3NTA3NTMyMH0.SKF-TB91AVFgLa_nb5R2_pBWRwms_Ax2yg-tP18mv9Y",
							"type": "string"
						}
					]
				},
				"method": "GET",
				"header": [],
				"url": {
					"raw": "localhost:8000/orders/getOrders/63d1526462c81c8a74ebd9ea",
					"host": [
						"localhost"
					],
					"port": "8000",
					"path": [
						"orders",
						"getOrders",
						"63d1526462c81c8a74ebd9ea"
					]
				}
			},
			"response": []
		}
	]
}